%YAML 1.1
%TAG !u! tag:unity3d.com,2011:
--- !u!1045 &1
EditorBuildSettings:
  m_ObjectHideFlags: 0
  serializedVersion: 2
  m_Scenes:
  - enabled: 1
    path: Assets/Scenes/Menu.unity
    guid: ab0dc66876007de49b0061b6d3b679a9
  - enabled: 1
    path: Assets/Scenes/Gameplay.unity
    guid: e0e53ac423c325c40a61bbb9aa1d15af
  m_configObjects: {}
